SMILE_BIGGRIN;Large sourire
SMILE_SMILE;Sourire
SMILE_SAD;Triste
SMILE_EEK;Surpris(e)
SMILE_COOL;Cool
SMILE_KISS;Bisou
SMILE_REDFACE;Embarrassé(e)
SMILE_CRY;En pleurs
SMILE_EVIL;En colère
SMILE_WINK;Clin d'œil
SMILE_EXCLAIM;Exclamation
SMILE_QUESTION;Question
SMILE_IDEA;Idée
SMILE_NEUTRAL;Sceptique
SMILE_CONFUSE;Confus(e)
SMILE_LIKE;J'aime
SMILE_FACEPALM;Facepalm